…
``` r
library(tidyverse)
air <- airquality # built into R
names(air) <- tolower(names(air))
air <- as_data_frame(air) %>% 
  select(-ozone, -solar.r, -wind)
```

For example, this is long-format data:

``` r
air
```

    ## # A tibble: 153 × 3
    ##     temp month   day
    ##    <int> <int> <int>
    ## 1     67     5     1
    ## 2     72     5     2
    ## 3     74     5     3
    ## 4     62     5     4
    ## 5     56     5     5
    ## 6     66     5     6
    ## 7     65     5     7
    ## 8     59     5     8
    ## 9     61     5     9
    ## 10    69     5    10
    ## # ... with 143 more rows

And this is wide-format data:

``` r
spread(air, month, temp)
```

    ## # A tibble: 31 × 6
    ##      day   `5`   `6`   `7`   `8`   `9`
    ## *  <int> <int> <int> <int> <int> <int>
    ## 1      1    67    78    84    81    91
    ## 2      2    72    74    85    81    92
    ## 3      3    74    67    81    82    93
    ## 4      4    62    84    84    86    93
    ## 5      5    56    85    83    85    87
    ## 6      6    66    79    83    87    84
    ## 7      7    65    82    88    89    80
    ## 8      8    59    87    92    90    78
    ## 9      9    61    90    92    90    75
    ## 10    10    69    87    89    92    73
    ## # ... with 21 more rows
…
tidyr::spread
=============

`spread` takes in order a data frame, the name of the 'key' column (the column that gets 'swung' up to made the new identifying columns), and the name of the 'value' column (the column that fills the wide dataset with values).

The tidyr package functions take bare (unquoted) column names. This saves typing and makes the functions work well with pipes. E.g. `spread(data, x, y)` *not* `spread(data, "x", "y"))`.

Let's take our `air` data and make it wide:

``` r
air_wide <- spread(air, month, temp)
air_wide
```

    ## # A tibble: 31 × 6
    ##      day   `5`   `6`   `7`   `8`   `9`
    ## *  <int> <int> <int> <int> <int> <int>
    ## 1      1    67    78    84    81    91
    ## 2      2    72    74    85    81    92
    ## 3      3    74    67    81    82    93
    ## 4      4    62    84    84    86    93
    ## 5      5    56    85    83    85    87
    ## 6      6    66    79    83    87    84
    ## 7      7    65    82    88    89    80
    ## 8      8    59    87    92    90    78
    ## 9      9    61    90    92    90    75
    ## 10    10    69    87    89    92    73
    ## # ... with 21 more rows

tidyr::gather
=============

`gather` takes wide data and makes it long.

The first argument is the data, the second argument represents whatever we want to call the ID columns in the long dataset, and the rest of the (unnamed) arguments use the syntax from the `dplyr::select` function to specify which colums to gather (i.e. all non ID columns.)

As an example: let's turn `air_wide` back into `air`.

``` r
gather(air_wide, month, temp, -day)
```

    ## # A tibble: 155 × 3
    ##      day month  temp
    ##    <int> <chr> <int>
    ## 1      1     5    67
    ## 2      2     5    72
    ## 3      3     5    74
    ## 4      4     5    62
    ## 5      5     5    56
    ## 6      6     5    66
    ## 7      7     5    65
    ## 8      8     5    59
    ## 9      9     5    61
    ## 10    10     5    69
    ## # ... with 145 more rows

Challenge 1
-----------

Try and answer the following questions before running the code:

What will the following do?

``` r
gather(air_wide, zebra, aligator, -day) # exercise
```

    ## # A tibble: 155 × 3
    ##      day zebra aligator
    ##    <int> <chr>    <int>
    ## 1      1     5       67
    ## 2      2     5       72
    ## 3      3     5       74
    ## 4      4     5       62
    ## 5      5     5       56
    ## 6      6     5       66
    ## 7      7     5       65
    ## 8      8     5       59
    ## 9      9     5       61
    ## 10    10     5       69
    ## # ... with 145 more rows

Is this the same as above?

``` r
gather(air_wide, month, temp, 2:6)
```

    ## # A tibble: 155 × 3
    ##      day month  temp
    ##    <int> <chr> <int>
    ## 1      1     5    67
    ## 2      2     5    72
    ## 3      3     5    74
    ## 4      4     5    62
    ## 5      5     5    56
    ## 6      6     5    66
    ## 7      7     5    65
    ## 8      8     5    59
    ## 9      9     5    61
    ## 10    10     5    69
    ## # ... with 145 more rows
…
